vtkOriginalIndices,Points:0,Points:1,Points:2,__vtkIsSelected__,arc_length,f_12,vtkValidPointMask
0,0,0.5,0,0,0,4.98928,1
1,0,0.5025,0,0,0.0025,4.97711,1
2,0,0.505,0,0,0.005,4.96494,1
3,0,0.5075,0,0,0.00749999,4.95276,1
4,0,0.51,0,0,0.00999999,4.94059,1
5,0,0.5125,0,0,0.0125,4.92841,1
6,0,0.515,0,0,0.015,4.91624,1
7,0,0.5175,0,0,0.0175,4.90407,1
8,0,0.52,0,0,0.02,4.89189,1
9,0,0.5225,0,0,0.0225,4.87972,1
10,0,0.525,0,0,0.025,4.86755,1
11,0,0.5275,0,0,0.0275,4.85537,1
12,0,0.53,0,0,0.03,4.8432,1
13,0,0.5325,0,0,0.0325,4.83102,1
14,0,0.535,0,0,0.035,4.81885,1
15,0,0.5375,0,0,0.0375,4.80668,1
16,0,0.54,0,0,0.04,4.7945,1
17,0,0.5425,0,0,0.0425,4.78233,1
18,0,0.545,0,0,0.045,4.77016,1
19,0,0.5475,0,0,0.0475,4.75798,1
20,0,0.55,0,0,0.05,4.74581,1
21,0,0.5525,0,0,0.0525,4.73364,1
22,0,0.555,0,0,0.055,4.72146,1
23,0,0.5575,0,0,0.0575,4.70929,1
24,0,0.56,0,0,0.06,4.69663,1
25,0,0.5625,0,0,0.0625,4.68366,1
26,0,0.565,0,0,0.065,4.67069,1
27,0,0.5675,0,0,0.0675,4.65772,1
28,0,0.57,0,0,0.07,4.64475,1
29,0,0.5725,0,0,0.0725,4.63177,1
30,0,0.575,0,0,0.075,4.6188,1
31,0,0.5775,0,0,0.0775,4.60583,1
32,0,0.58,0,0,0.08,4.59286,1
33,0,0.5825,0,0,0.0825,4.57989,1
34,0,0.585,0,0,0.085,4.56692,1
35,0,0.5875,0,0,0.0875,4.55395,1
36,0,0.59,0,0,0.09,4.54097,1
37,0,0.5925,0,0,0.0925,4.528,1
38,0,0.595,0,0,0.095,4.51503,1
39,0,0.5975,0,0,0.0975,4.50206,1
40,0,0.6,0,0,0.1,4.48909,1
41,0,0.6025,0,0,0.1025,4.47612,1
42,0,0.605,0,0,0.105,4.46315,1
43,0,0.6075,0,0,0.1075,4.45017,1
44,0,0.61,0,0,0.11,4.4372,1
45,0,0.6125,0,0,0.1125,4.42423,1
46,0,0.615,0,0,0.115,4.41126,1
47,0,0.6175,0,0,0.1175,4.39829,1
48,0,0.62,0,0,0.12,4.38649,1
49,0,0.6225,0,0,0.1225,4.37558,1
50,0,0.625,0,0,0.125,4.36467,1
51,0,0.6275,0,0,0.1275,4.35375,1
52,0,0.63,0,0,0.13,4.34284,1
53,0,0.6325,0,0,0.1325,4.33193,1
54,0,0.635,0,0,0.135,4.32102,1
55,0,0.6375,0,0,0.1375,4.31011,1
56,0,0.64,0,0,0.14,4.2992,1
57,0,0.6425,0,0,0.1425,4.28829,1
58,0,0.645,0,0,0.145,4.27738,1
59,0,0.6475,0,0,0.1475,4.26647,1
60,0,0.65,0,0,0.15,4.25573,1
61,0,0.6525,0,0,0.1525,4.24624,1
62,0,0.655,0,0,0.155,4.23675,1
63,0,0.6575,0,0,0.1575,4.22725,1
64,0,0.66,0,0,0.16,4.21776,1
65,0,0.6625,0,0,0.1625,4.20827,1
66,0,0.665,0,0,0.165,4.19878,1
67,0,0.6675,0,0,0.1675,4.18929,1
68,0,0.67,0,0,0.17,4.1798,1
69,0,0.6725,0,0,0.1725,4.17031,1
70,0,0.675,0,0,0.175,4.16082,1
71,0,0.6775,0,0,0.1775,4.15132,1
72,0,0.68,0,0,0.18,4.14183,1
73,0,0.6825,0,0,0.1825,4.13234,1
74,0,0.685,0,0,0.185,4.12285,1
75,0,0.6875,0,0,0.1875,4.11336,1
76,0,0.69,0,0,0.19,4.10387,1
77,0,0.6925,0,0,0.1925,4.09438,1
78,0,0.695,0,0,0.195,4.08489,1
79,0,0.6975,0,0,0.1975,4.07539,1
80,0,0.7,0,0,0.2,4.0659,1
81,0,0.7025,0,0,0.2025,4.05641,1
82,0,0.705,0,0,0.205,4.04692,1
83,0,0.7075,0,0,0.2075,4.03743,1
84,0,0.71,0,0,0.21,4.02794,1
85,0,0.7125,0,0,0.2125,4.01845,1
86,0,0.715,0,0,0.215,4.00896,1
87,0,0.7175,0,0,0.2175,3.99947,1
88,0,0.72,0,0,0.22,3.98997,1
89,0,0.7225,0,0,0.2225,3.98048,1
90,0,0.725,0,0,0.225,3.97099,1
91,0,0.7275,0,0,0.2275,3.9615,1
92,0,0.73,0,0,0.23,3.95201,1
93,0,0.7325,0,0,0.2325,3.94252,1
94,0,0.735,0,0,0.235,3.93303,1
95,0,0.7375,0,0,0.2375,3.92354,1
96,0,0.74,0,0,0.24,3.91404,1
97,0,0.7425,0,0,0.2425,3.90455,1
98,0,0.745,0,0,0.245,3.89506,1
99,0,0.7475,0,0,0.2475,3.88557,1
100,0,0.75,0,0,0.25,3.87608,1
101,0,0.7525,0,0,0.2525,3.86659,1
102,0,0.755,0,0,0.255,3.8571,1
103,0,0.7575,0,0,0.2575,3.84761,1
104,0,0.76,0,0,0.26,3.83811,1
105,0,0.7625,0,0,0.2625,3.82862,1
106,0,0.765,0,0,0.265,3.81913,1
107,0,0.7675,0,0,0.2675,3.80964,1
108,0,0.77,0,0,0.27,3.80015,1
109,0,0.7725,0,0,0.2725,3.79066,1
110,0,0.775,0,0,0.275,3.78117,1
111,0,0.7775,0,0,0.2775,3.77168,1
112,0,0.78,0,0,0.28,3.76219,1
113,0,0.7825,0,0,0.2825,3.75269,1
114,0,0.785,0,0,0.285,3.7432,1
115,0,0.7875,0,0,0.2875,3.73371,1
116,0,0.79,0,0,0.29,3.72422,1
117,0,0.7925,0,0,0.2925,3.71473,1
118,0,0.795,0,0,0.295,3.70524,1
119,0,0.7975,0,0,0.2975,3.69575,1
120,0,0.8,0,0,0.3,3.68626,1
121,0,0.8025,0,0,0.3025,3.67676,1
122,0,0.805,0,0,0.305,3.66727,1
123,0,0.8075,0,0,0.3075,3.65778,1
124,0,0.81,0,0,0.31,3.64843,1
125,0,0.8125,0,0,0.3125,3.63959,1
126,0,0.815,0,0,0.315,3.63075,1
127,0,0.8175,0,0,0.3175,3.6219,1
128,0,0.82,0,0,0.32,3.61306,1
129,0,0.8225,0,0,0.3225,3.60422,1
130,0,0.825,0,0,0.325,3.59537,1
131,0,0.8275,0,0,0.3275,3.58653,1
132,0,0.83,0,0,0.33,3.57769,1
133,0,0.8325,0,0,0.3325,3.56884,1
134,0,0.835,0,0,0.335,3.56,1
135,0,0.8375,0,0,0.3375,3.55116,1
136,0,0.84,0,0,0.34,3.54231,1
137,0,0.8425,0,0,0.3425,3.53347,1
138,0,0.845,0,0,0.345,3.52463,1
139,0,0.8475,0,0,0.3475,3.51578,1
140,0,0.85,0,0,0.35,3.50694,1
141,0,0.8525,0,0,0.3525,3.4981,1
142,0,0.855,0,0,0.355,3.48925,1
143,0,0.8575,0,0,0.3575,3.48041,1
144,0,0.86,0,0,0.36,3.47157,1
145,0,0.8625,0,0,0.3625,3.46272,1
146,0,0.865,0,0,0.365,3.45465,1
147,0,0.8675,0,0,0.3675,3.44752,1
148,0,0.87,0,0,0.37,3.44038,1
149,0,0.8725,0,0,0.3725,3.43325,1
150,0,0.875,0,0,0.375,3.42611,1
151,0,0.8775,0,0,0.3775,3.41898,1
152,0,0.88,0,0,0.38,3.41184,1
153,0,0.8825,0,0,0.3825,3.40471,1
154,0,0.885,0,0,0.385,3.39757,1
155,0,0.8875,0,0,0.3875,3.39044,1
156,0,0.89,0,0,0.39,3.38331,1
157,0,0.8925,0,0,0.3925,3.37617,1
158,0,0.895,0,0,0.395,3.36904,1
159,0,0.8975,0,0,0.3975,3.3619,1
160,0,0.9,0,0,0.4,3.35477,1
161,0,0.9025,0,0,0.4025,3.34763,1
162,0,0.905,0,0,0.405,3.3405,1
163,0,0.9075,0,0,0.4075,3.33336,1
164,0,0.91,0,0,0.41,3.32623,1
165,0,0.9125,0,0,0.4125,3.31909,1
166,0,0.915,0,0,0.415,3.31196,1
167,0,0.9175,0,0,0.4175,3.30483,1
168,0,0.92,0,0,0.42,3.29769,1
169,0,0.9225,0,0,0.4225,3.29056,1
170,0,0.925,0,0,0.425,3.28342,1
171,0,0.9275,0,0,0.4275,3.27629,1
172,0,0.93,0,0,0.43,3.26915,1
173,0,0.9325,0,0,0.4325,3.26202,1
174,0,0.935,0,0,0.435,3.25488,1
175,0,0.9375,0,0,0.4375,3.24775,1
176,0,0.94,0,0,0.44,3.24061,1
177,0,0.9425,0,0,0.4425,3.23348,1
178,0,0.945,0,0,0.445,3.22635,1
179,0,0.9475,0,0,0.4475,3.21921,1
180,0,0.95,0,0,0.45,3.21208,1
181,0,0.9525,0,0,0.4525,3.20494,1
182,0,0.955,0,0,0.455,3.19781,1
183,0,0.9575,0,0,0.4575,3.19067,1
184,0,0.96,0,0,0.46,3.18354,1
185,0,0.9625,0,0,0.4625,3.1764,1
186,0,0.965,0,0,0.465,3.16927,1
187,0,0.9675,0,0,0.4675,3.16214,1
188,0,0.97,0,0,0.47,3.155,1
189,0,0.9725,0,0,0.4725,3.14787,1
190,0,0.975,0,0,0.475,3.14073,1
191,0,0.9775,0,0,0.4775,3.1336,1
192,0,0.98,0,0,0.48,3.12646,1
193,0,0.9825,0,0,0.4825,3.11933,1
194,0,0.985,0,0,0.485,3.11219,1
195,0,0.9875,0,0,0.4875,3.10506,1
196,0,0.99,0,0,0.49,3.09792,1
197,0,0.9925,0,0,0.4925,3.09079,1
198,0,0.995,0,0,0.495,3.08366,1
199,0,0.9975,0,0,0.4975,3.07652,1
200,0,1,0,0,0.5,3.06939,1
201,0,1.0025,0,0,0.5025,3.06225,1
202,0,1.005,0,0,0.505,3.05512,1
203,0,1.0075,0,0,0.5075,3.04798,1
204,0,1.01,0,0,0.51,3.04085,1
205,0,1.0125,0,0,0.5125,3.03371,1
206,0,1.015,0,0,0.515,3.02658,1
207,0,1.0175,0,0,0.5175,3.01944,1
208,0,1.02,0,0,0.52,3.01231,1
209,0,1.0225,0,0,0.5225,3.00517,1
210,0,1.025,0,0,0.525,2.99804,1
211,0,1.0275,0,0,0.5275,2.99091,1
212,0,1.03,0,0,0.53,2.98377,1
213,0,1.0325,0,0,0.5325,2.97664,1
214,0,1.035,0,0,0.535,2.9695,1
215,0,1.0375,0,0,0.5375,2.96237,1
216,0,1.04,0,0,0.54,2.95523,1
217,0,1.0425,0,0,0.5425,2.9481,1
218,0,1.045,0,0,0.545,2.94096,1
219,0,1.0475,0,0,0.5475,2.93383,1
220,0,1.05,0,0,0.55,2.9267,1
221,0,1.0525,0,0,0.5525,2.91956,1
222,0,1.055,0,0,0.555,2.91243,1
223,0,1.0575,0,0,0.5575,2.90529,1
224,0,1.06,0,0,0.56,2.89816,1
225,0,1.0625,0,0,0.5625,2.89102,1
226,0,1.065,0,0,0.565,2.88389,1
227,0,1.0675,0,0,0.5675,2.87678,1
228,0,1.07,0,0,0.57,2.86968,1
229,0,1.0725,0,0,0.5725,2.86258,1
230,0,1.075,0,0,0.575,2.85548,1
231,0,1.0775,0,0,0.5775,2.84838,1
232,0,1.08,0,0,0.58,2.84128,1
233,0,1.0825,0,0,0.5825,2.83417,1
234,0,1.085,0,0,0.585,2.82707,1
235,0,1.0875,0,0,0.5875,2.81997,1
236,0,1.09,0,0,0.59,2.81287,1
237,0,1.0925,0,0,0.5925,2.80577,1
238,0,1.095,0,0,0.595,2.79867,1
239,0,1.0975,0,0,0.5975,2.79157,1
240,0,1.1,0,0,0.6,2.78447,1
241,0,1.1025,0,0,0.6025,2.77737,1
242,0,1.105,0,0,0.605,2.77026,1
243,0,1.1075,0,0,0.6075,2.76316,1
244,0,1.11,0,0,0.61,2.75606,1
245,0,1.1125,0,0,0.6125,2.74896,1
246,0,1.115,0,0,0.615,2.74186,1
247,0,1.1175,0,0,0.6175,2.73582,1
248,0,1.12,0,0,0.62,2.7306,1
249,0,1.1225,0,0,0.6225,2.72539,1
250,0,1.125,0,0,0.625,2.72017,1
251,0,1.1275,0,0,0.6275,2.71496,1
252,0,1.13,0,0,0.63,2.70974,1
253,0,1.1325,0,0,0.6325,2.70453,1
254,0,1.135,0,0,0.635,2.69931,1
255,0,1.1375,0,0,0.6375,2.6941,1
256,0,1.14,0,0,0.64,2.68888,1
257,0,1.1425,0,0,0.6425,2.68366,1
258,0,1.145,0,0,0.645,2.67845,1
259,0,1.1475,0,0,0.6475,2.67323,1
260,0,1.15,0,0,0.65,2.66802,1
261,0,1.1525,0,0,0.6525,2.6628,1
262,0,1.155,0,0,0.655,2.65759,1
263,0,1.1575,0,0,0.6575,2.65237,1
264,0,1.16,0,0,0.66,2.64716,1
265,0,1.1625,0,0,0.6625,2.64194,1
266,0,1.165,0,0,0.665,2.63673,1
267,0,1.1675,0,0,0.6675,2.63151,1
268,0,1.17,0,0,0.67,2.62629,1
269,0,1.1725,0,0,0.6725,2.62108,1
270,0,1.175,0,0,0.675,2.61586,1
271,0,1.1775,0,0,0.6775,2.61065,1
272,0,1.18,0,0,0.68,2.60543,1
273,0,1.1825,0,0,0.6825,2.60022,1
274,0,1.185,0,0,0.685,2.595,1
275,0,1.1875,0,0,0.6875,2.58979,1
276,0,1.19,0,0,0.69,2.58457,1
277,0,1.1925,0,0,0.6925,2.57935,1
278,0,1.195,0,0,0.695,2.57414,1
279,0,1.1975,0,0,0.6975,2.56892,1
280,0,1.2,0,0,0.7,2.56371,1
281,0,1.2025,0,0,0.7025,2.55849,1
282,0,1.205,0,0,0.705,2.55328,1
283,0,1.2075,0,0,0.7075,2.54806,1
284,0,1.21,0,0,0.71,2.54285,1
285,0,1.2125,0,0,0.7125,2.53748,1
286,0,1.215,0,0,0.715,2.53175,1
287,0,1.2175,0,0,0.7175,2.52603,1
288,0,1.22,0,0,0.72,2.5203,1
289,0,1.2225,0,0,0.7225,2.51457,1
290,0,1.225,0,0,0.725,2.50885,1
291,0,1.2275,0,0,0.7275,2.50312,1
292,0,1.23,0,0,0.73,2.49739,1
293,0,1.2325,0,0,0.7325,2.49167,1
294,0,1.235,0,0,0.735,2.48594,1
295,0,1.2375,0,0,0.7375,2.48022,1
296,0,1.24,0,0,0.74,2.47449,1
297,0,1.2425,0,0,0.7425,2.46876,1
298,0,1.245,0,0,0.745,2.46304,1
299,0,1.2475,0,0,0.7475,2.45731,1
300,0,1.25,0,0,0.75,2.45159,1
301,0,1.2525,0,0,0.7525,2.44586,1
302,0,1.255,0,0,0.755,2.44013,1
303,0,1.2575,0,0,0.7575,2.43441,1
304,0,1.26,0,0,0.76,2.42868,1
305,0,1.2625,0,0,0.7625,2.42295,1
306,0,1.265,0,0,0.765,2.41723,1
307,0,1.2675,0,0,0.7675,2.4115,1
308,0,1.27,0,0,0.77,2.40578,1
309,0,1.2725,0,0,0.7725,2.40005,1
310,0,1.275,0,0,0.775,2.39432,1
311,0,1.2775,0,0,0.7775,2.3886,1
312,0,1.28,0,0,0.78,2.38287,1
313,0,1.2825,0,0,0.7825,2.37715,1
314,0,1.285,0,0,0.785,2.37142,1
315,0,1.2875,0,0,0.7875,2.36569,1
316,0,1.29,0,0,0.79,2.35997,1
317,0,1.2925,0,0,0.7925,2.35424,1
318,0,1.295,0,0,0.795,2.34851,1
319,0,1.2975,0,0,0.7975,2.34279,1
320,0,1.3,0,0,0.8,2.33706,1
321,0,1.3025,0,0,0.8025,2.33134,1
322,0,1.305,0,0,0.805,2.32561,1
323,0,1.3075,0,0,0.8075,2.31988,1
324,0,1.31,0,0,0.81,2.31416,1
325,0,1.3125,0,0,0.8125,2.30843,1
326,0,1.315,0,0,0.815,2.30271,1
327,0,1.3175,0,0,0.8175,2.29698,1
328,0,1.32,0,0,0.82,2.29125,1
329,0,1.3225,0,0,0.8225,2.28553,1
330,0,1.325,0,0,0.825,2.2798,1
331,0,1.3275,0,0,0.8275,2.27407,1
332,0,1.33,0,0,0.83,2.26835,1
333,0,1.3325,0,0,0.8325,2.26262,1
334,0,1.335,0,0,0.835,2.2569,1
335,0,1.3375,0,0,0.8375,2.25117,1
336,0,1.34,0,0,0.84,2.24544,1
337,0,1.3425,0,0,0.8425,2.23972,1
338,0,1.345,0,0,0.845,2.23399,1
339,0,1.3475,0,0,0.8475,2.22827,1
340,0,1.35,0,0,0.85,2.22254,1
341,0,1.3525,0,0,0.8525,2.21681,1
342,0,1.355,0,0,0.855,2.21109,1
343,0,1.3575,0,0,0.8575,2.20536,1
344,0,1.36,0,0,0.86,2.19963,1
345,0,1.3625,0,0,0.8625,2.19391,1
346,0,1.365,0,0,0.865,2.18818,1
347,0,1.3675,0,0,0.8675,2.18246,1
348,0,1.37,0,0,0.87,2.17673,1
349,0,1.3725,0,0,0.8725,2.171,1
350,0,1.375,0,0,0.875,2.16528,1
351,0,1.3775,0,0,0.8775,2.15955,1
352,0,1.38,0,0,0.88,2.15383,1
353,0,1.3825,0,0,0.8825,2.1481,1
354,0,1.385,0,0,0.885,2.14237,1
355,0,1.3875,0,0,0.8875,2.13665,1
356,0,1.39,0,0,0.89,2.13092,1
357,0,1.3925,0,0,0.8925,2.12519,1
358,0,1.395,0,0,0.895,2.12038,1
359,0,1.3975,0,0,0.8975,2.11611,1
360,0,1.4,0,0,0.9,2.11184,1
361,0,1.4025,0,0,0.9025,2.10756,1
362,0,1.405,0,0,0.905,2.10329,1
363,0,1.4075,0,0,0.9075,2.09901,1
364,0,1.41,0,0,0.91,2.09474,1
365,0,1.4125,0,0,0.9125,2.09047,1
366,0,1.415,0,0,0.915,2.08619,1
367,0,1.4175,0,0,0.9175,2.08192,1
368,0,1.42,0,0,0.92,2.07764,1
369,0,1.4225,0,0,0.9225,2.07337,1
370,0,1.425,0,0,0.925,2.0691,1
371,0,1.4275,0,0,0.9275,2.06482,1
372,0,1.43,0,0,0.93,2.06055,1
373,0,1.4325,0,0,0.9325,2.05628,1
374,0,1.435,0,0,0.935,2.052,1
375,0,1.4375,0,0,0.9375,2.04773,1
376,0,1.44,0,0,0.94,2.04345,1
377,0,1.4425,0,0,0.9425,2.03918,1
378,0,1.445,0,0,0.945,2.03491,1
379,0,1.4475,0,0,0.9475,2.03063,1
380,0,1.45,0,0,0.95,2.02636,1
381,0,1.4525,0,0,0.9525,2.02208,1
382,0,1.455,0,0,0.955,2.01781,1
383,0,1.4575,0,0,0.9575,2.01354,1
384,0,1.46,0,0,0.96,2.00926,1
385,0,1.4625,0,0,0.9625,2.00499,1
386,0,1.465,0,0,0.965,2.00071,1
387,0,1.4675,0,0,0.9675,1.99644,1
388,0,1.47,0,0,0.97,1.99217,1
389,0,1.4725,0,0,0.9725,1.98789,1
390,0,1.475,0,0,0.975,1.98362,1
391,0,1.4775,0,0,0.9775,1.97935,1
392,0,1.48,0,0,0.98,1.97507,1
393,0,1.4825,0,0,0.9825,1.9708,1
394,0,1.485,0,0,0.985,1.96652,1
395,0,1.4875,0,0,0.9875,1.96225,1
396,0,1.49,0,0,0.99,1.95798,1
397,0,1.4925,0,0,0.9925,1.9537,1
398,0,1.495,0,0,0.995,1.94943,1
399,0,1.4975,0,0,0.9975,1.94515,1
400,0,1.5,0,0,1,1.94088,1
401,0,1.5025,0,0,1.0025,1.93661,1
402,0,1.505,0,0,1.005,1.93233,1
403,0,1.5075,0,0,1.0075,1.92806,1
404,0,1.51,0,0,1.01,1.92378,1
405,0,1.5125,0,0,1.0125,1.91951,1
406,0,1.515,0,0,1.015,1.91524,1
407,0,1.5175,0,0,1.0175,1.91096,1
408,0,1.52,0,0,1.02,1.90669,1
409,0,1.5225,0,0,1.0225,1.90242,1
410,0,1.525,0,0,1.025,1.89814,1
411,0,1.5275,0,0,1.0275,1.89387,1
412,0,1.53,0,0,1.03,1.88959,1
413,0,1.5325,0,0,1.0325,1.88532,1
414,0,1.535,0,0,1.035,1.88105,1
415,0,1.5375,0,0,1.0375,1.87677,1
416,0,1.54,0,0,1.04,1.8725,1
417,0,1.5425,0,0,1.0425,1.86822,1
418,0,1.545,0,0,1.045,1.86395,1
419,0,1.5475,0,0,1.0475,1.85968,1
420,0,1.55,0,0,1.05,1.8554,1
421,0,1.5525,0,0,1.0525,1.85113,1
422,0,1.555,0,0,1.055,1.84685,1
423,0,1.5575,0,0,1.0575,1.84258,1
424,0,1.56,0,0,1.06,1.83831,1
425,0,1.5625,0,0,1.0625,1.83363,1
426,0,1.565,0,0,1.065,1.82888,1
427,0,1.5675,0,0,1.0675,1.82413,1
428,0,1.57,0,0,1.07,1.81937,1
429,0,1.5725,0,0,1.0725,1.81462,1
430,0,1.575,0,0,1.075,1.80987,1
431,0,1.5775,0,0,1.0775,1.80512,1
432,0,1.58,0,0,1.08,1.80037,1
433,0,1.5825,0,0,1.0825,1.79561,1
434,0,1.585,0,0,1.085,1.79086,1
435,0,1.5875,0,0,1.0875,1.78611,1
436,0,1.59,0,0,1.09,1.78136,1
437,0,1.5925,0,0,1.0925,1.77661,1
438,0,1.595,0,0,1.095,1.77185,1
439,0,1.5975,0,0,1.0975,1.7671,1
440,0,1.6,0,0,1.1,1.76235,1
441,0,1.6025,0,0,1.1025,1.7576,1
442,0,1.605,0,0,1.105,1.75285,1
443,0,1.6075,0,0,1.1075,1.7481,1
444,0,1.61,0,0,1.11,1.74334,1
445,0,1.6125,0,0,1.1125,1.73859,1
446,0,1.615,0,0,1.115,1.73384,1
447,0,1.6175,0,0,1.1175,1.72909,1
448,0,1.62,0,0,1.12,1.72434,1
449,0,1.6225,0,0,1.1225,1.71958,1
450,0,1.625,0,0,1.125,1.71483,1
451,0,1.6275,0,0,1.1275,1.71008,1
452,0,1.63,0,0,1.13,1.70533,1
453,0,1.6325,0,0,1.1325,1.70058,1
454,0,1.635,0,0,1.135,1.69582,1
455,0,1.6375,0,0,1.1375,1.69107,1
456,0,1.64,0,0,1.14,1.68632,1
457,0,1.6425,0,0,1.1425,1.68157,1
458,0,1.645,0,0,1.145,1.67682,1
459,0,1.6475,0,0,1.1475,1.67206,1
460,0,1.65,0,0,1.15,1.66731,1
461,0,1.6525,0,0,1.1525,1.66256,1
462,0,1.655,0,0,1.155,1.65781,1
463,0,1.6575,0,0,1.1575,1.65306,1
464,0,1.66,0,0,1.16,1.6483,1
465,0,1.6625,0,0,1.1625,1.64355,1
466,0,1.665,0,0,1.165,1.6388,1
467,0,1.6675,0,0,1.1675,1.63405,1
468,0,1.67,0,0,1.17,1.6293,1
469,0,1.6725,0,0,1.1725,1.62454,1
470,0,1.675,0,0,1.175,1.61979,1
471,0,1.6775,0,0,1.1775,1.61504,1
472,0,1.68,0,0,1.18,1.61029,1
473,0,1.6825,0,0,1.1825,1.60554,1
474,0,1.685,0,0,1.185,1.60079,1
475,0,1.6875,0,0,1.1875,1.59603,1
476,0,1.69,0,0,1.19,1.59128,1
477,0,1.6925,0,0,1.1925,1.58653,1
478,0,1.695,0,0,1.195,1.58178,1
479,0,1.6975,0,0,1.1975,1.57703,1
480,0,1.7,0,0,1.2,1.57227,1
481,0,1.7025,0,0,1.2025,1.5679,1
482,0,1.705,0,0,1.205,1.56441,1
483,0,1.7075,0,0,1.2075,1.56092,1
484,0,1.71,0,0,1.21,1.55743,1
485,0,1.7125,0,0,1.2125,1.55395,1
486,0,1.715,0,0,1.215,1.55046,1
487,0,1.7175,0,0,1.2175,1.54697,1
488,0,1.72,0,0,1.22,1.54348,1
489,0,1.7225,0,0,1.2225,1.53999,1
490,0,1.725,0,0,1.225,1.53651,1
491,0,1.7275,0,0,1.2275,1.53302,1
492,0,1.73,0,0,1.23,1.52953,1
493,0,1.7325,0,0,1.2325,1.52604,1
494,0,1.735,0,0,1.235,1.52255,1
495,0,1.7375,0,0,1.2375,1.51907,1
496,0,1.74,0,0,1.24,1.51558,1
497,0,1.7425,0,0,1.2425,1.51209,1
498,0,1.745,0,0,1.245,1.5086,1
499,0,1.7475,0,0,1.2475,1.50511,1
500,0,1.75,0,0,1.25,1.50162,1
501,0,1.7525,0,0,1.2525,1.49814,1
502,0,1.755,0,0,1.255,1.49465,1
503,0,1.7575,0,0,1.2575,1.49116,1
504,0,1.76,0,0,1.26,1.48767,1
505,0,1.7625,0,0,1.2625,1.48418,1
506,0,1.765,0,0,1.265,1.4807,1
507,0,1.7675,0,0,1.2675,1.47721,1
508,0,1.77,0,0,1.27,1.47372,1
509,0,1.7725,0,0,1.2725,1.47023,1
510,0,1.775,0,0,1.275,1.46674,1
511,0,1.7775,0,0,1.2775,1.46326,1
512,0,1.78,0,0,1.28,1.45977,1
513,0,1.7825,0,0,1.2825,1.45628,1
514,0,1.785,0,0,1.285,1.45279,1
515,0,1.7875,0,0,1.2875,1.4493,1
516,0,1.79,0,0,1.29,1.44582,1
517,0,1.7925,0,0,1.2925,1.44233,1
518,0,1.795,0,0,1.295,1.43884,1
519,0,1.7975,0,0,1.2975,1.43535,1
520,0,1.8,0,0,1.3,1.43186,1
521,0,1.8025,0,0,1.3025,1.42838,1
522,0,1.805,0,0,1.305,1.42489,1
523,0,1.8075,0,0,1.3075,1.4214,1
524,0,1.81,0,0,1.31,1.41791,1
525,0,1.8125,0,0,1.3125,1.41442,1
526,0,1.815,0,0,1.315,1.41094,1
527,0,1.8175,0,0,1.3175,1.40745,1
528,0,1.82,0,0,1.32,1.40396,1
529,0,1.8225,0,0,1.3225,1.40047,1
530,0,1.825,0,0,1.325,1.39698,1
531,0,1.8275,0,0,1.3275,1.39349,1
532,0,1.83,0,0,1.33,1.39001,1
533,0,1.8325,0,0,1.3325,1.38652,1
534,0,1.835,0,0,1.335,1.38303,1
535,0,1.8375,0,0,1.3375,1.37954,1
536,0,1.84,0,0,1.34,1.37605,1
537,0,1.8425,0,0,1.3425,1.37257,1
538,0,1.845,0,0,1.345,1.36908,1
539,0,1.8475,0,0,1.3475,1.36559,1
540,0,1.85,0,0,1.35,1.36181,1
541,0,1.8525,0,0,1.3525,1.3579,1
542,0,1.855,0,0,1.355,1.354,1
543,0,1.8575,0,0,1.3575,1.35009,1
544,0,1.86,0,0,1.36,1.34619,1
545,0,1.8625,0,0,1.3625,1.34228,1
546,0,1.865,0,0,1.365,1.33838,1
547,0,1.8675,0,0,1.3675,1.33447,1
548,0,1.87,0,0,1.37,1.33057,1
549,0,1.8725,0,0,1.3725,1.32666,1
550,0,1.875,0,0,1.375,1.32276,1
551,0,1.8775,0,0,1.3775,1.31885,1
552,0,1.88,0,0,1.38,1.31495,1
553,0,1.8825,0,0,1.3825,1.31104,1
554,0,1.885,0,0,1.385,1.30713,1
555,0,1.8875,0,0,1.3875,1.30323,1
556,0,1.89,0,0,1.39,1.29932,1
557,0,1.8925,0,0,1.3925,1.29542,1
558,0,1.895,0,0,1.395,1.29151,1
559,0,1.8975,0,0,1.3975,1.28761,1
560,0,1.9,0,0,1.4,1.2837,1
561,0,1.9025,0,0,1.4025,1.2798,1
562,0,1.905,0,0,1.405,1.27589,1
563,0,1.9075,0,0,1.4075,1.27199,1
564,0,1.91,0,0,1.41,1.26808,1
565,0,1.9125,0,0,1.4125,1.26418,1
566,0,1.915,0,0,1.415,1.26027,1
567,0,1.9175,0,0,1.4175,1.25637,1
568,0,1.92,0,0,1.42,1.25246,1
569,0,1.9225,0,0,1.4225,1.24856,1
570,0,1.925,0,0,1.425,1.24465,1
571,0,1.9275,0,0,1.4275,1.24075,1
572,0,1.93,0,0,1.43,1.23684,1
573,0,1.9325,0,0,1.4325,1.23294,1
574,0,1.935,0,0,1.435,1.22903,1
575,0,1.9375,0,0,1.4375,1.22513,1
576,0,1.94,0,0,1.44,1.22122,1
577,0,1.9425,0,0,1.4425,1.21732,1
578,0,1.945,0,0,1.445,1.21341,1
579,0,1.9475,0,0,1.4475,1.20951,1
580,0,1.95,0,0,1.45,1.2056,1
581,0,1.9525,0,0,1.4525,1.2017,1
582,0,1.955,0,0,1.455,1.19779,1
583,0,1.9575,0,0,1.4575,1.19389,1
584,0,1.96,0,0,1.46,1.18998,1
585,0,1.9625,0,0,1.4625,1.18607,1
586,0,1.965,0,0,1.465,1.18217,1
587,0,1.9675,0,0,1.4675,1.17826,1
588,0,1.97,0,0,1.47,1.17436,1
589,0,1.9725,0,0,1.4725,1.17045,1
590,0,1.975,0,0,1.475,1.16655,1
591,0,1.9775,0,0,1.4775,1.16264,1
592,0,1.98,0,0,1.48,1.15874,1
593,0,1.9825,0,0,1.4825,1.15483,1
594,0,1.985,0,0,1.485,1.15093,1
595,0,1.9875,0,0,1.4875,1.14702,1
596,0,1.99,0,0,1.49,1.14312,1
597,0,1.9925,0,0,1.4925,1.13921,1
598,0,1.995,0,0,1.495,1.13531,1
599,0,1.9975,0,0,1.4975,1.1314,1
600,0,2,0,0,1.5,1.1275,1
601,0,2.0025,0,0,1.5025,1.12359,1
602,0,2.005,0,0,1.505,1.11969,1
603,0,2.0075,0,0,1.5075,1.11578,1
604,0,2.01,0,0,1.51,1.11188,1
605,0,2.0125,0,0,1.5125,1.10797,1
606,0,2.015,0,0,1.515,1.10407,1
607,0,2.0175,0,0,1.5175,1.10016,1
608,0,2.02,0,0,1.52,1.09626,1
609,0,2.0225,0,0,1.5225,1.09235,1
610,0,2.025,0,0,1.525,1.08845,1
611,0,2.0275,0,0,1.5275,1.08454,1
612,0,2.03,0,0,1.53,1.08064,1
613,0,2.0325,0,0,1.5325,1.07673,1
614,0,2.035,0,0,1.535,1.07283,1
615,0,2.0375,0,0,1.5375,1.06892,1
616,0,2.04,0,0,1.54,1.06502,1
617,0,2.0425,0,0,1.5425,1.06111,1
618,0,2.045,0,0,1.545,1.0572,1
619,0,2.0475,0,0,1.5475,1.0533,1
620,0,2.05,0,0,1.55,1.04939,1
621,0,2.0525,0,0,1.5525,1.04549,1
622,0,2.055,0,0,1.555,1.04158,1
623,0,2.0575,0,0,1.5575,1.03768,1
624,0,2.06,0,0,1.56,1.03377,1
625,0,2.0625,0,0,1.5625,1.02987,1
626,0,2.065,0,0,1.565,1.02596,1
627,0,2.0675,0,0,1.5675,1.02206,1
628,0,2.07,0,0,1.57,1.01815,1
629,0,2.0725,0,0,1.5725,1.01425,1
630,0,2.075,0,0,1.575,1.01034,1
631,0,2.0775,0,0,1.5775,1.00644,1
632,0,2.08,0,0,1.58,1.00253,1
633,0,2.0825,0,0,1.5825,0.998627,1
634,0,2.085,0,0,1.585,0.995454,1
635,0,2.0875,0,0,1.5875,0.992622,1
636,0,2.09,0,0,1.59,0.989791,1
637,0,2.0925,0,0,1.5925,0.986959,1
638,0,2.095,0,0,1.595,0.984127,1
639,0,2.0975,0,0,1.5975,0.981295,1
640,0,2.1,0,0,1.6,0.978463,1
641,0,2.1025,0,0,1.6025,0.975632,1
642,0,2.105,0,0,1.605,0.9728,1
643,0,2.1075,0,0,1.6075,0.969968,1
644,0,2.11,0,0,1.61,0.967136,1
645,0,2.1125,0,0,1.6125,0.964304,1
646,0,2.115,0,0,1.615,0.961473,1
647,0,2.1175,0,0,1.6175,0.958641,1
648,0,2.12,0,0,1.62,0.955809,1
649,0,2.1225,0,0,1.6225,0.952977,1
650,0,2.125,0,0,1.625,0.950145,1
651,0,2.1275,0,0,1.6275,0.947314,1
652,0,2.13,0,0,1.63,0.944482,1
653,0,2.1325,0,0,1.6325,0.94165,1
654,0,2.135,0,0,1.635,0.938818,1
655,0,2.1375,0,0,1.6375,0.935986,1
656,0,2.14,0,0,1.64,0.933155,1
657,0,2.1425,0,0,1.6425,0.930323,1
658,0,2.145,0,0,1.645,0.927491,1
659,0,2.1475,0,0,1.6475,0.924659,1
660,0,2.15,0,0,1.65,0.921827,1
661,0,2.1525,0,0,1.6525,0.918996,1
662,0,2.155,0,0,1.655,0.916164,1
663,0,2.1575,0,0,1.6575,0.913332,1
664,0,2.16,0,0,1.66,0.9105,1
665,0,2.1625,0,0,1.6625,0.907669,1
666,0,2.165,0,0,1.665,0.904837,1
667,0,2.1675,0,0,1.6675,0.902005,1
668,0,2.17,0,0,1.67,0.899173,1
669,0,2.1725,0,0,1.6725,0.896341,1
670,0,2.175,0,0,1.675,0.89351,1
671,0,2.1775,0,0,1.6775,0.890678,1
672,0,2.18,0,0,1.68,0.887846,1
673,0,2.1825,0,0,1.6825,0.885014,1
674,0,2.185,0,0,1.685,0.882182,1
675,0,2.1875,0,0,1.6875,0.879351,1
676,0,2.19,0,0,1.69,0.876519,1
677,0,2.1925,0,0,1.6925,0.873687,1
678,0,2.195,0,0,1.695,0.870855,1
679,0,2.1975,0,0,1.6975,0.868023,1
680,0,2.2,0,0,1.7,0.865192,1
681,0,2.2025,0,0,1.7025,0.86236,1
682,0,2.205,0,0,1.705,0.859528,1
683,0,2.2075,0,0,1.7075,0.856696,1
684,0,2.21,0,0,1.71,0.853864,1
685,0,2.2125,0,0,1.7125,0.851033,1
686,0,2.215,0,0,1.715,0.848201,1
687,0,2.2175,0,0,1.7175,0.845369,1
688,0,2.22,0,0,1.72,0.842537,1
689,0,2.2225,0,0,1.7225,0.839705,1
690,0,2.225,0,0,1.725,0.836874,1
691,0,2.2275,0,0,1.7275,0.834042,1
692,0,2.23,0,0,1.73,0.83121,1
693,0,2.2325,0,0,1.7325,0.828378,1
694,0,2.235,0,0,1.735,0.825547,1
695,0,2.2375,0,0,1.7375,0.822715,1
696,0,2.24,0,0,1.74,0.819883,1
697,0,2.2425,0,0,1.7425,0.817051,1
698,0,2.245,0,0,1.745,0.814219,1
699,0,2.2475,0,0,1.7475,0.811388,1
700,0,2.25,0,0,1.75,0.808556,1
701,0,2.2525,0,0,1.7525,0.805724,1
702,0,2.255,0,0,1.755,0.802892,1
703,0,2.2575,0,0,1.7575,0.80006,1
704,0,2.26,0,0,1.76,0.797229,1
705,0,2.2625,0,0,1.7625,0.794397,1
706,0,2.265,0,0,1.765,0.791565,1
707,0,2.2675,0,0,1.7675,0.788733,1
708,0,2.27,0,0,1.77,0.785901,1
709,0,2.2725,0,0,1.7725,0.78307,1
710,0,2.275,0,0,1.775,0.780238,1
711,0,2.2775,0,0,1.7775,0.777406,1
712,0,2.28,0,0,1.78,0.774574,1
713,0,2.2825,0,0,1.7825,0.771306,1
714,0,2.285,0,0,1.785,0.767988,1
715,0,2.2875,0,0,1.7875,0.76467,1
716,0,2.29,0,0,1.79,0.761352,1
717,0,2.2925,0,0,1.7925,0.758034,1
718,0,2.295,0,0,1.795,0.754716,1
719,0,2.2975,0,0,1.7975,0.751398,1
720,0,2.3,0,0,1.8,0.74808,1
721,0,2.3025,0,0,1.8025,0.744762,1
722,0,2.305,0,0,1.805,0.741444,1
723,0,2.3075,0,0,1.8075,0.738126,1
724,0,2.31,0,0,1.81,0.734808,1
725,0,2.3125,0,0,1.8125,0.73149,1
726,0,2.315,0,0,1.815,0.728172,1
727,0,2.3175,0,0,1.8175,0.724854,1
728,0,2.32,0,0,1.82,0.721536,1
729,0,2.3225,0,0,1.8225,0.718218,1
730,0,2.325,0,0,1.825,0.7149,1
731,0,2.3275,0,0,1.8275,0.711582,1
732,0,2.33,0,0,1.83,0.708264,1
733,0,2.3325,0,0,1.8325,0.704946,1
734,0,2.335,0,0,1.835,0.701628,1
735,0,2.3375,0,0,1.8375,0.69831,1
736,0,2.34,0,0,1.84,0.694992,1
737,0,2.3425,0,0,1.8425,0.691674,1
738,0,2.345,0,0,1.845,0.688356,1
739,0,2.3475,0,0,1.8475,0.685038,1
740,0,2.35,0,0,1.85,0.681721,1
741,0,2.3525,0,0,1.8525,0.678402,1
742,0,2.355,0,0,1.855,0.675084,1
743,0,2.3575,0,0,1.8575,0.671766,1
744,0,2.36,0,0,1.86,0.668449,1
745,0,2.3625,0,0,1.8625,0.665131,1
746,0,2.365,0,0,1.865,0.661812,1
747,0,2.3675,0,0,1.8675,0.658494,1
748,0,2.37,0,0,1.87,0.655177,1
749,0,2.3725,0,0,1.8725,0.651859,1
750,0,2.375,0,0,1.875,0.648541,1
751,0,2.3775,0,0,1.8775,0.645222,1
752,0,2.38,0,0,1.88,0.641904,1
753,0,2.3825,0,0,1.8825,0.638587,1
754,0,2.385,0,0,1.885,0.635269,1
755,0,2.3875,0,0,1.8875,0.631951,1
756,0,2.39,0,0,1.89,0.628632,1
757,0,2.3925,0,0,1.8925,0.625315,1
758,0,2.395,0,0,1.895,0.621997,1
759,0,2.3975,0,0,1.8975,0.618679,1
760,0,2.4,0,0,1.9,0.615361,1
761,0,2.4025,0,0,1.9025,0.612043,1
762,0,2.405,0,0,1.905,0.608725,1
763,0,2.4075,0,0,1.9075,0.605407,1
764,0,2.41,0,0,1.91,0.602089,1
765,0,2.4125,0,0,1.9125,0.598771,1
766,0,2.415,0,0,1.915,0.595453,1
767,0,2.4175,0,0,1.9175,0.592135,1
768,0,2.42,0,0,1.92,0.588817,1
769,0,2.4225,0,0,1.9225,0.585499,1
770,0,2.425,0,0,1.925,0.582181,1
771,0,2.4275,0,0,1.9275,0.578863,1
772,0,2.43,0,0,1.93,0.575545,1
773,0,2.4325,0,0,1.9325,0.572227,1
774,0,2.435,0,0,1.935,0.568909,1
775,0,2.4375,0,0,1.9375,0.565591,1
776,0,2.44,0,0,1.94,0.562273,1
777,0,2.4425,0,0,1.9425,0.558955,1
778,0,2.445,0,0,1.945,0.555637,1
779,0,2.4475,0,0,1.9475,0.552319,1
780,0,2.45,0,0,1.95,0.549001,1
781,0,2.4525,0,0,1.9525,0.545683,1
782,0,2.455,0,0,1.955,0.542365,1
783,0,2.4575,0,0,1.9575,0.539047,1
784,0,2.46,0,0,1.96,0.535729,1
785,0,2.4625,0,0,1.9625,0.532411,1
786,0,2.465,0,0,1.965,0.529093,1
787,0,2.4675,0,0,1.9675,0.525775,1
788,0,2.47,0,0,1.97,0.522457,1
789,0,2.4725,0,0,1.9725,0.519139,1
790,0,2.475,0,0,1.975,0.516615,1
791,0,2.4775,0,0,1.9775,0.514122,1
792,0,2.48,0,0,1.98,0.511629,1
793,0,2.4825,0,0,1.9825,0.509136,1
794,0,2.485,0,0,1.985,0.506643,1
795,0,2.4875,0,0,1.9875,0.50415,1
796,0,2.49,0,0,1.99,0.501658,1
797,0,2.4925,0,0,1.9925,0.499165,1
798,0,2.495,0,0,1.995,0.496672,1
799,0,2.4975,0,0,1.9975,0.494179,1
800,0,2.5,0,0,2,0.491686,1
801,0,2.5025,0,0,2.0025,0.489193,1
802,0,2.505,0,0,2.005,0.4867,1
803,0,2.5075,0,0,2.0075,0.484207,1
804,0,2.51,0,0,2.01,0.481714,1
805,0,2.5125,0,0,2.0125,0.479221,1
806,0,2.515,0,0,2.015,0.476729,1
807,0,2.5175,0,0,2.0175,0.474236,1
808,0,2.52,0,0,2.02,0.471743,1
809,0,2.5225,0,0,2.0225,0.46925,1
810,0,2.525,0,0,2.025,0.466757,1
811,0,2.5275,0,0,2.0275,0.464264,1
812,0,2.53,0,0,2.03,0.461771,1
813,0,2.5325,0,0,2.0325,0.459278,1
814,0,2.535,0,0,2.035,0.456785,1
815,0,2.5375,0,0,2.0375,0.454293,1
816,0,2.54,0,0,2.04,0.4518,1
817,0,2.5425,0,0,2.0425,0.449307,1
818,0,2.545,0,0,2.045,0.446814,1
819,0,2.5475,0,0,2.0475,0.444321,1
820,0,2.55,0,0,2.05,0.441828,1
821,0,2.5525,0,0,2.0525,0.439335,1
822,0,2.555,0,0,2.055,0.436842,1
823,0,2.5575,0,0,2.0575,0.43435,1
824,0,2.56,0,0,2.06,0.431857,1
825,0,2.5625,0,0,2.0625,0.429364,1
826,0,2.565,0,0,2.065,0.426871,1
827,0,2.5675,0,0,2.0675,0.424378,1
828,0,2.57,0,0,2.07,0.421885,1
829,0,2.5725,0,0,2.0725,0.419392,1
830,0,2.575,0,0,2.075,0.416899,1
831,0,2.5775,0,0,2.0775,0.414406,1
832,0,2.58,0,0,2.08,0.411914,1
833,0,2.5825,0,0,2.0825,0.409421,1
834,0,2.585,0,0,2.085,0.406928,1
835,0,2.5875,0,0,2.0875,0.404435,1
836,0,2.59,0,0,2.09,0.401942,1
837,0,2.5925,0,0,2.0925,0.399449,1
838,0,2.595,0,0,2.095,0.396956,1
839,0,2.5975,0,0,2.0975,0.394463,1
840,0,2.6,0,0,2.1,0.391971,1
841,0,2.6025,0,0,2.1025,0.389478,1
842,0,2.605,0,0,2.105,0.386935,1
843,0,2.6075,0,0,2.1075,0.384348,1
844,0,2.61,0,0,2.11,0.381762,1
845,0,2.6125,0,0,2.1125,0.379175,1
846,0,2.615,0,0,2.115,0.376589,1
847,0,2.6175,0,0,2.1175,0.374002,1
848,0,2.62,0,0,2.12,0.371416,1
849,0,2.6225,0,0,2.1225,0.36883,1
850,0,2.625,0,0,2.125,0.366243,1
851,0,2.6275,0,0,2.1275,0.363657,1
852,0,2.63,0,0,2.13,0.36107,1
853,0,2.6325,0,0,2.1325,0.358484,1
854,0,2.635,0,0,2.135,0.355897,1
855,0,2.6375,0,0,2.1375,0.353311,1
856,0,2.64,0,0,2.14,0.350724,1
857,0,2.6425,0,0,2.1425,0.348138,1
858,0,2.645,0,0,2.145,0.345552,1
859,0,2.6475,0,0,2.1475,0.342965,1
860,0,2.65,0,0,2.15,0.340379,1
861,0,2.6525,0,0,2.1525,0.337792,1
862,0,2.655,0,0,2.155,0.335206,1
863,0,2.6575,0,0,2.1575,0.332619,1
864,0,2.66,0,0,2.16,0.330033,1
865,0,2.6625,0,0,2.1625,0.327446,1
866,0,2.665,0,0,2.165,0.32486,1
867,0,2.6675,0,0,2.1675,0.322273,1
868,0,2.67,0,0,2.17,0.319687,1
869,0,2.6725,0,0,2.1725,0.317101,1
870,0,2.675,0,0,2.175,0.314514,1
871,0,2.6775,0,0,2.1775,0.311928,1
872,0,2.68,0,0,2.18,0.309341,1
873,0,2.6825,0,0,2.1825,0.306755,1
874,0,2.685,0,0,2.185,0.304168,1
875,0,2.6875,0,0,2.1875,0.301582,1
876,0,2.69,0,0,2.19,0.298995,1
877,0,2.6925,0,0,2.1925,0.296409,1
878,0,2.695,0,0,2.195,0.293823,1
879,0,2.6975,0,0,2.1975,0.291236,1
880,0,2.7,0,0,2.2,0.28865,1
881,0,2.7025,0,0,2.2025,0.286063,1
882,0,2.705,0,0,2.205,0.283477,1
883,0,2.7075,0,0,2.2075,0.28089,1
884,0,2.71,0,0,2.21,0.278304,1
885,0,2.7125,0,0,2.2125,0.275717,1
886,0,2.715,0,0,2.215,0.273131,1
887,0,2.7175,0,0,2.2175,0.270545,1
888,0,2.72,0,0,2.22,0.267958,1
889,0,2.7225,0,0,2.2225,0.265372,1
890,0,2.725,0,0,2.225,0.262785,1
891,0,2.7275,0,0,2.2275,0.260199,1
892,0,2.73,0,0,2.23,0.257612,1
893,0,2.7325,0,0,2.2325,0.255026,1
894,0,2.735,0,0,2.235,0.25244,1
895,0,2.7375,0,0,2.2375,0.249853,1
896,0,2.74,0,0,2.24,0.247267,1
897,0,2.7425,0,0,2.2425,0.24468,1
898,0,2.745,0,0,2.245,0.242094,1
899,0,2.7475,0,0,2.2475,0.239507,1
900,0,2.75,0,0,2.25,0.236921,1
901,0,2.7525,0,0,2.2525,0.234334,1
902,0,2.755,0,0,2.255,0.231748,1
903,0,2.7575,0,0,2.2575,0.229162,1
904,0,2.76,0,0,2.26,0.226575,1
905,0,2.7625,0,0,2.2625,0.223989,1
906,0,2.765,0,0,2.265,0.221402,1
907,0,2.7675,0,0,2.2675,0.218816,1
908,0,2.77,0,0,2.27,0.216229,1
909,0,2.7725,0,0,2.2725,0.213643,1
910,0,2.775,0,0,2.275,0.211056,1
911,0,2.7775,0,0,2.2775,0.20847,1
912,0,2.78,0,0,2.28,0.205884,1
913,0,2.7825,0,0,2.2825,0.203297,1
914,0,2.785,0,0,2.285,0.200711,1
915,0,2.7875,0,0,2.2875,0.198124,1
916,0,2.79,0,0,2.29,0.195538,1
917,0,2.7925,0,0,2.2925,0.192951,1
918,0,2.795,0,0,2.295,0.190365,1
919,0,2.7975,0,0,2.2975,0.187779,1
920,0,2.8,0,0,2.3,0.185192,1
921,0,2.8025,0,0,2.3025,0.182606,1
922,0,2.805,0,0,2.305,0.180019,1
923,0,2.8075,0,0,2.3075,0.177433,1
924,0,2.81,0,0,2.31,0.174846,1
925,0,2.8125,0,0,2.3125,0.17226,1
926,0,2.815,0,0,2.315,0.169673,1
927,0,2.8175,0,0,2.3175,0.167087,1
928,0,2.82,0,0,2.32,0.164501,1
929,0,2.8225,0,0,2.3225,0.161914,1
930,0,2.825,0,0,2.325,0.159328,1
931,0,2.8275,0,0,2.3275,0.156741,1
932,0,2.83,0,0,2.33,0.154155,1
933,0,2.8325,0,0,2.3325,0.151568,1
934,0,2.835,0,0,2.335,0.148982,1
935,0,2.8375,0,0,2.3375,0.146395,1
936,0,2.84,0,0,2.34,0.143809,1
937,0,2.8425,0,0,2.3425,0.141223,1
938,0,2.845,0,0,2.345,0.138636,1
939,0,2.8475,0,0,2.3475,0.136049,1
940,0,2.85,0,0,2.35,0.133463,1
941,0,2.8525,0,0,2.3525,0.130877,1
942,0,2.855,0,0,2.355,0.12829,1
943,0,2.8575,0,0,2.3575,0.125704,1
944,0,2.86,0,0,2.36,0.123117,1
945,0,2.8625,0,0,2.3625,0.120531,1
946,0,2.865,0,0,2.365,0.117944,1
947,0,2.8675,0,0,2.3675,0.115358,1
948,0,2.87,0,0,2.37,0.112772,1
949,0,2.8725,0,0,2.3725,0.110185,1
950,0,2.875,0,0,2.375,0.107599,1
951,0,2.8775,0,0,2.3775,0.105012,1
952,0,2.88,0,0,2.38,0.102426,1
953,0,2.8825,0,0,2.3825,0.0998394,1
954,0,2.885,0,0,2.385,0.0972529,1
955,0,2.8875,0,0,2.3875,0.0946664,1
956,0,2.89,0,0,2.39,0.0920799,1
957,0,2.8925,0,0,2.3925,0.0894937,1
958,0,2.895,0,0,2.395,0.0869072,1
959,0,2.8975,0,0,2.3975,0.0843207,1
960,0,2.9,0,0,2.4,0.0817342,1
961,0,2.9025,0,0,2.4025,0.0791479,1
962,0,2.905,0,0,2.405,0.0765614,1
963,0,2.9075,0,0,2.4075,0.0739749,1
964,0,2.91,0,0,2.41,0.0713884,1
965,0,2.9125,0,0,2.4125,0.0688022,1
966,0,2.915,0,0,2.415,0.0662157,1
967,0,2.9175,0,0,2.4175,0.0636292,1
968,0,2.92,0,0,2.42,0.0610427,1
969,0,2.9225,0,0,2.4225,0.0584564,1
970,0,2.925,0,0,2.425,0.0558699,1
971,0,2.9275,0,0,2.4275,0.0532834,1
972,0,2.93,0,0,2.43,0.0506969,1
973,0,2.9325,0,0,2.4325,0.0481106,1
974,0,2.935,0,0,2.435,0.0455241,1
975,0,2.9375,0,0,2.4375,0.0429376,1
976,0,2.94,0,0,2.44,0.0403511,1
977,0,2.9425,0,0,2.4425,0.0377646,1
978,0,2.945,0,0,2.445,0.0351784,1
979,0,2.9475,0,0,2.4475,0.0325919,1
980,0,2.95,0,0,2.45,0.0300054,1
981,0,2.9525,0,0,2.4525,0.0274189,1
982,0,2.955,0,0,2.455,0.0248326,1
983,0,2.9575,0,0,2.4575,0.0222461,1
984,0,2.96,0,0,2.46,0.0196596,1
985,0,2.9625,0,0,2.4625,0.0170731,1
986,0,2.965,0,0,2.465,0.0144868,1
987,0,2.9675,0,0,2.4675,0.0119003,1
988,0,2.97,0,0,2.47,0.00931384,1
989,0,2.9725,0,0,2.4725,0.00672733,1
990,0,2.975,0,0,2.475,0.00414108,1
991,0,2.9775,0,0,2.4775,0.00155458,1
992,0,2.98,0,0,2.48,nan,0
993,0,2.9825,0,0,2.4825,nan,0
994,0,2.985,0,0,2.485,nan,0
995,0,2.9875,0,0,2.4875,nan,0
996,0,2.99,0,0,2.49,nan,0
997,0,2.9925,0,0,2.4925,nan,0
998,0,2.995,0,0,2.495,nan,0
999,0,2.9975,0,0,2.4975,nan,0
1000,0,3,0,0,2.5,nan,0
